…
    ## $hh_by_inc_band
    ## # A tibble: 54 x 9
    ## # Groups:   level, name [9]
    ##    level  name    inc_band  value value_se statefip.x statefip.y  share sharemoe
    ##    <fct>  <chr>   <fct>     <dbl>    <dbl>  <int+lbl>  <int+lbl>  <dbl>    <dbl>
    ##  1 1_sta… Connec… Total    1.37e6    3502.         NA NA         NA       NA    
    ##  2 1_sta… Connec… Very low 2.09e5    2437.         NA  9 [Conne…  0.153    0.002
    ##  3 1_sta… Connec… Low      1.57e5    2107.         NA  9 [Conne…  0.115    0.002
    ##  4 1_sta… Connec… Mid-low  2.18e5    2461.         NA  9 [Conne…  0.159    0.002
    ##  5 1_sta… Connec… Mid-high 2.38e5    2451.         NA  9 [Conne…  0.174    0.002
    ##  6 1_sta… Connec… High     5.47e5    3103.         NA  9 [Conne…  0.4      0.002
    ##  7 2_cou… Fairfi… Total    3.40e5    2753.         NA NA         NA       NA    
    ##  8 2_cou… Fairfi… Very low 5.70e4    1332.         NA NA          0.167    0.004
    ##  9 2_cou… Fairfi… Low      4.01e4    1100.         NA NA          0.118    0.003
    ## 10 2_cou… Fairfi… Mid-low  5.04e4    1186.         NA NA          0.148    0.003
    ## # … with 44 more rows
    ## 
    ## $income_ranges
    ## # A tibble: 9 x 6
    ##   Name      `Very low`    Low           `Mid-low`      `Mid-high`      High     
    ##   <chr>     <chr>         <chr>         <chr>          <chr>           <chr>    
    ## 1 Fairfiel… Less than $2… Between $28,… Between $47,8… Between $76,51… More tha…
    ## 2 Hartford… Less than $2… Between $22,… Between $37,5… Between $60,11… More tha…
    ## 3 Litchfie… Less than $2… Between $23,… Between $39,9… Between $63,92… More tha…
    ## 4 Middlese… Less than $2… Between $25,… Between $42,9… Between $68,71… More tha…
    ## 5 New Have… Less than $2… Between $20,… Between $34,9… Between $55,92… More tha…
    ## 6 New Lond… Less than $2… Between $22,… Between $36,7… Between $58,79… More tha…
    ## 7 Tolland … Less than $2… Between $26,… Between $43,5… Between $69,65… More tha…
    ## 8 Windham … Less than $1… Between $19,… Between $33,2… Between $53,24… More tha…
    ## 9 Connecti… Less than $2… Between $23,… Between $39,2… Between $62,75… More tha…
    ## 
    ## $hh_by_race_inc_band
    ## # A tibble: 216 x 10
    ## # Groups:   level, name, race2 [36]
    ##    level name  race2 inc_band  value value_se statefip.x statefip.y  share
    ##    <fct> <chr> <fct> <fct>     <dbl>    <dbl>  <int+lbl>  <int+lbl>  <dbl>
    ##  1 1_st… Conn… White Total    996437    3346. NA         NA         NA    
    ##  2 1_st… Conn… White Very low 117488    1748.  9 [Conne…  9 [Conne…  0.118
    ##  3 1_st… Conn… White Low      100645    1584.  9 [Conne…  9 [Conne…  0.101
    ##  4 1_st… Conn… White Mid-low  147671    1923.  9 [Conne…  9 [Conne…  0.148
    ##  5 1_st… Conn… White Mid-high 176546    2017.  9 [Conne…  9 [Conne…  0.177
    ##  6 1_st… Conn… White High     454087    2814.  9 [Conne…  9 [Conne…  0.456
    ##  7 1_st… Conn… Black Total    125094    2102. NA         NA         NA    
    ##  8 1_st… Conn… Black Very low  33474    1100.  9 [Conne…  9 [Conne…  0.268
    ##  9 1_st… Conn… Black Low       20070     886.  9 [Conne…  9 [Conne…  0.16 
    ## 10 1_st… Conn… Black Mid-low   24128     946.  9 [Conne…  9 [Conne…  0.193
    ## # … with 206 more rows, and 1 more variable: sharemoe <dbl>
    ## 
    ## $pivot_race_inc_band
    ## # A tibble: 270 x 4
    ##    name        race2 inc_band  value
    ##    <chr>       <chr> <fct>     <dbl>
    ##  1 Connecticut White Total    996437
    ##  2 Connecticut White Very low 117488
    ##  3 Connecticut White Low      100645
    ##  4 Connecticut White Mid-low  147671
    ##  5 Connecticut White Mid-high 176546
    ##  6 Connecticut White High     454087
    ##  7 Connecticut Black Total    125094
    ##  8 Connecticut Black Very low  33474
    ##  9 Connecticut Black Low       20070
    ## 10 Connecticut Black Mid-low   24128
    ## # … with 260 more rows
    ## 
    ## $common_jobs_by_inc_band
    ## # A tibble: 401 x 6
    ## # Groups:   name, inc_band [40]
    ##    level   name       inc_band workers   occ occ_label                          
    ##    <chr>   <chr>      <fct>      <dbl> <int> <chr>                              
    ##  1 2_coun… Fairfield… Very low    2850  4720 Cashiers                           
    ##  2 2_coun… Fairfield… Very low    2121  9920 Unemployed, with no work experienc…
    ##  3 2_coun… Fairfield… Very low    2039  4230 Maids and housekeeping cleaners    
    ##  4 2_coun… Fairfield… Very low    1366  4600 Childcare workers                  
    ##  5 2_coun… Fairfield… Very low    1306  4251 Landscaping and groundskeeping wor…
    ##  6 2_coun… Fairfield… Very low    1282  4760 Retail salespersons                
    ##  7 2_coun… Fairfield… Very low    1280  4220 Janitors and building cleaners     
    ##  8 2_coun… Fairfield… Very low    1250  3602 Personal care aides                
    ##  9 2_coun… Fairfield… Very low    1221  3603 Nursing assistants                 
    ## 10 2_coun… Fairfield… Very low     866  4020 Cooks                              
    ## # … with 391 more rows
    ## 
    ## $cb_by_inc_band
    ## # A tibble: 178 x 10
    ## # Groups:   level, name, inc_band [45]
    ##    level name  inc_band cost_burden  value value_se statefip.x statefip.y  share
    ##    <fct> <chr> <fct>    <fct>        <dbl>    <dbl>  <int+lbl>  <int+lbl>  <dbl>
    ##  1 1_st… Conn… Very low Total       208730    2437. NA         NA         NA    
    ##  2 1_st… Conn… Very low No burden    29601     962.  9 [Conne…  9 [Conne…  0.142
    ##  3 1_st… Conn… Very low Cost-burde…  33506     996.  9 [Conne…  9 [Conne…  0.161
    ##  4 1_st… Conn… Very low Severely c… 145623    2076.  9 [Conne…  9 [Conne…  0.698
    ##  5 1_st… Conn… Low      Total       156805    2107. NA         NA         NA    
    ##  6 1_st… Conn… Low      No burden    39386    1014.  9 [Conne…  9 [Conne…  0.251
    ##  7 1_st… Conn… Low      Cost-burde…  64752    1411.  9 [Conne…  9 [Conne…  0.413
    ##  8 1_st… Conn… Low      Severely c…  52667    1284.  9 [Conne…  9 [Conne…  0.336
    ##  9 1_st… Conn… Mid-low  Total       217599    2461. NA         NA         NA    
    ## 10 1_st… Conn… Mid-low  No burden   112667    1779.  9 [Conne…  9 [Conne…  0.518
    ## # … with 168 more rows, and 1 more variable: sharemoe <dbl>
    ## 
    ## $cb_shares
    ## # A tibble: 27 x 5
    ##    level      name              cost_burden             value share
    ##    <fct>      <chr>             <fct>                   <dbl> <dbl>
    ##  1 1_state    Connecticut       No burden              876299 0.641
    ##  2 1_state    Connecticut       Cost-burdened          256442 0.188
    ##  3 1_state    Connecticut       Severely cost-burdened 234633 0.172
    ##  4 2_counties Fairfield County  No burden              205374 0.603
    ##  5 2_counties Fairfield County  Cost-burdened           67587 0.198
    ##  6 2_counties Fairfield County  Severely cost-burdened  67531 0.198
    ##  7 2_counties Hartford County   No burden              230189 0.659
    ##  8 2_counties Hartford County   Cost-burdened           61851 0.177
    ##  9 2_counties Hartford County   Severely cost-burdened  57023 0.163
    ## 10 2_counties Litchfield County No burden               50980 0.689
    ## # … with 17 more rows
    ## 
    ## $cb_rates_inc_band
    ## # A tibble: 135 x 6
    ## # Groups:   level, name, inc_band [45]
    ##    level   name        inc_band cost_burden  value  share
    ##    <fct>   <chr>       <fct>    <fct>        <dbl>  <dbl>
    ##  1 1_state Connecticut Very low Total       208730 NA    
    ##  2 1_state Connecticut Very low No burden    29601  0.142
    ##  3 1_state Connecticut Very low Burden      179129  0.858
    ##  4 1_state Connecticut Low      Total       156805 NA    
    ##  5 1_state Connecticut Low      No burden    39386  0.251
    ##  6 1_state Connecticut Low      Burden      117419  0.749
    ##  7 1_state Connecticut Mid-low  Total       217599 NA    
    ##  8 1_state Connecticut Mid-low  No burden   112667  0.518
    ##  9 1_state Connecticut Mid-low  Burden      104932  0.482
    ## 10 1_state Connecticut Mid-high Total       237507 NA    
    ## # … with 125 more rows
    ## 
    ## $avg_cost_ratio_inc_band
    ## # A tibble: 45 x 4
    ## # Groups:   name [9]
    ##    name             inc_band wm_cb level     
    ##    <chr>            <fct>    <dbl> <chr>     
    ##  1 Fairfield County Very low 0.710 2_counties
    ##  2 Fairfield County Low      0.466 2_counties
    ##  3 Fairfield County Mid-low  0.346 2_counties
    ##  4 Fairfield County Mid-high 0.265 2_counties
    ##  5 Fairfield County High     0.167 2_counties
    ##  6 Hartford County  Very low 0.698 2_counties
    ##  7 Hartford County  Low      0.433 2_counties
    ##  8 Hartford County  Mid-low  0.310 2_counties
    ##  9 Hartford County  Mid-high 0.226 2_counties
    ## 10 Hartford County  High     0.154 2_counties
    ## # … with 35 more rows
    ## 
    ## $avg_cost_inc_band
    ## # A tibble: 45 x 4
    ## # Groups:   name [9]
    ##    name             inc_band wm_cost level     
    ##    <chr>            <fct>      <dbl> <chr>     
    ##  1 Connecticut      Very low   1003. 1_state   
    ##  2 Connecticut      Low        1214. 1_state   
    ##  3 Connecticut      Mid-low    1368. 1_state   
    ##  4 Connecticut      Mid-high   1580. 1_state   
    ##  5 Connecticut      High       2311. 1_state   
    ##  6 Fairfield County Very low   1235. 2_counties
    ##  7 Fairfield County Low        1554. 2_counties
    ##  8 Fairfield County Mid-low    1767. 2_counties
    ##  9 Fairfield County Mid-high   2071. 2_counties
    ## 10 Fairfield County High       3226. 2_counties
    ## # … with 35 more rows
    ## 
    ## $affordable_cost_table
    ## # A tibble: 9 x 6
    ##   Name       `Very low`   Low          `Mid-low`       `Mid-high`      High     
    ##   <chr>      <chr>        <chr>        <chr>           <chr>           <chr>    
    ## 1 Fairfield… Less than $… Between $71… Between $1,196… Between $1,913… More tha…
    ## 2 Hartford … Less than $… Between $56… Between $939 a… Between $1,503… More tha…
    ## 3 Litchfiel… Less than $… Between $59… Between $999 a… Between $1,598… More tha…
    ## 4 Middlesex… Less than $… Between $64… Between $1,074… Between $1,718… More tha…
    ## 5 New Haven… Less than $… Between $52… Between $874 a… Between $1,398… More tha…
    ## 6 New Londo… Less than $… Between $55… Between $919 a… Between $1,470… More tha…
    ## 7 Tolland C… Less than $… Between $65… Between $1,088… Between $1,741… More tha…
    ## 8 Windham C… Less than $… Between $49… Between $832 a… Between $1,331… More tha…
    ## 9 Connectic… Less than $… Between $58… Between $981 a… Between $1,569… More tha…
    ## 
    ## $all_units_inc_and_cost_bands
    ## # A tibble: 70,616 x 6
    ## # Groups:   name [8]
    ##     hhwt name               minc inc_band hcost cost_band
    ##    <dbl> <chr>             <dbl> <fct>    <int> <chr>    
    ##  1    16 Fairfield County  95645 Mid-high  4208 High     
    ##  2    11 New London County 73490 Mid-high  2169 Mid-high 
    ##  3    21 New London County 73490 Mid-high   551 Very low 
    ##  4    19 New Haven County  69905 High      6607 High     
    ##  5    24 New Haven County  69905 High      1176 Mid-low  
    ##  6    15 Fairfield County  95645 High      4908 High     
    ##  7     7 New London County 73490 High      4140 High     
    ##  8    16 Hartford County   75148 High      1853 Mid-high 
    ##  9     6 New London County 73490 Low       6546 High     
    ## 10    12 Hartford County   75148 Mid-low    767 Low      
    ## # … with 70,606 more rows
    ## 
    ## $units_by_cost_and_income
    ## # A tibble: 90 x 5
    ## # Groups:   name [9]
    ##    name             inc_band group       value level     
    ##    <chr>            <chr>    <chr>       <dbl> <chr>     
    ##  1 Fairfield County High     households 139131 2_counties
    ##  2 Fairfield County High     units       85776 2_counties
    ##  3 Fairfield County Low      households  40088 2_counties
    ##  4 Fairfield County Low      units       54655 2_counties
    ##  5 Fairfield County Mid-high households  53938 2_counties
    ##  6 Fairfield County Mid-high units       81076 2_counties
    ##  7 Fairfield County Mid-low  households  50351 2_counties
    ##  8 Fairfield County Mid-low  units       88441 2_counties
    ##  9 Fairfield County Very low households  56984 2_counties
    ## 10 Fairfield County Very low units       30544 2_counties
    ## # … with 80 more rows
    ## 
    ## $hh_cost_band_vs_units_cost_band
    ## # A tibble: 25 x 3
    ## # Groups:   inc_band [5]
    ##    inc_band cost_band units
    ##    <fct>    <fct>     <dbl>
    ##  1 Very low High       8328
    ##  2 Very low Low       57631
    ##  3 Very low Mid-high  20463
    ##  4 Very low Mid-low   61347
    ##  5 Very low Very low  60961
    ##  6 Low      High       7402
    ##  7 Low      Low       47355
    ##  8 Low      Mid-high  23758
    ##  9 Low      Mid-low   59829
    ## 10 Low      Very low  18461
    ## # … with 15 more rows
    ## 
    ## $units_by_tenure_occupancy_cost_band
    ## # A tibble: 252 x 5
    ## # Groups:   name, tenure, occupancy [54]
    ##    name             tenure occupancy cost_band units
    ##    <chr>            <chr>  <fct>     <fct>     <dbl>
    ##  1 Fairfield County owner  occupied  high      76980
    ##  2 Fairfield County owner  occupied  mid_high  59518
    ##  3 Fairfield County owner  occupied  mid_low   44969
    ##  4 Fairfield County owner  occupied  low       32580
    ##  5 Fairfield County owner  occupied  very_low  12069
    ##  6 Hartford County  owner  occupied  high      52582
    ##  7 Hartford County  owner  occupied  mid_high  68044
    ##  8 Hartford County  owner  occupied  mid_low   54348
    ##  9 Hartford County  owner  occupied  low       40030
    ## 10 Hartford County  owner  occupied  very_low   8358
    ## # … with 242 more rows
    ## 
    ## $units_and_households
    ## # A tibble: 90 x 4
    ##    name        band     group       value
    ##    <chr>       <fct>    <chr>       <dbl>
    ##  1 Connecticut Very low households 208730
    ##  2 Connecticut Very low units      122020
    ##  3 Connecticut Low      households 156805
    ##  4 Connecticut Low      units      251752
    ##  5 Connecticut Mid-low  households 217599
    ##  6 Connecticut Mid-low  units      428638
    ##  7 Connecticut Mid-high households 237507
    ##  8 Connecticut Mid-high units      353086
    ##  9 Connecticut High     households 546733
    ## 10 Connecticut High     units      273649
    ## # … with 80 more rows
…
